…
Remember the pipe `%>%`? The pipe takes an input on the left, and "inserts" it into a function on the right. Let's put this idea to work with a little refresher exercise.

### __q1__ A little refresher

What is the difference between these two versions of code? How are they the same? How are they different?


``` r
## Version 1
filter(diamonds, cut == "Ideal")
```

```
## # A tibble: 21,551 × 10
##    carat cut   color clarity depth table price     x     y     z
##    <dbl> <ord> <ord> <ord>   <dbl> <dbl> <int> <dbl> <dbl> <dbl>
##  1  0.23 Ideal E     SI2      61.5    55   326  3.95  3.98  2.43
##  2  0.23 Ideal J     VS1      62.8    56   340  3.93  3.9   2.46
##  3  0.31 Ideal J     SI2      62.2    54   344  4.35  4.37  2.71
##  4  0.3  Ideal I     SI2      62      54   348  4.31  4.34  2.68
##  5  0.33 Ideal I     SI2      61.8    55   403  4.49  4.51  2.78
##  6  0.33 Ideal I     SI2      61.2    56   403  4.49  4.5   2.75
##  7  0.33 Ideal J     SI1      61.1    56   403  4.49  4.55  2.76
##  8  0.23 Ideal G     VS1      61.9    54   404  3.93  3.95  2.44
##  9  0.32 Ideal I     SI1      60.9    55   404  4.45  4.48  2.72
## 10  0.3  Ideal I     SI2      61      59   405  4.3   4.33  2.63
## # ℹ 21,541 more rows
```

``` r
## Version 2
diamonds %>% filter(cut == "Ideal")
```

```
## # A tibble: 21,551 × 10
##    carat cut   color clarity depth table price     x     y     z
##    <dbl> <ord> <ord> <ord>   <dbl> <dbl> <int> <dbl> <dbl> <dbl>
##  1  0.23 Ideal E     SI2      61.5    55   326  3.95  3.98  2.43
##  2  0.23 Ideal J     VS1      62.8    56   340  3.93  3.9   2.46
##  3  0.31 Ideal J     SI2      62.2    54   344  4.35  4.37  2.71
##  4  0.3  Ideal I     SI2      62      54   348  4.31  4.34  2.68
##  5  0.33 Ideal I     SI2      61.8    55   403  4.49  4.51  2.78
##  6  0.33 Ideal I     SI2      61.2    56   403  4.49  4.5   2.75
##  7  0.33 Ideal J     SI1      61.1    56   403  4.49  4.55  2.76
##  8  0.23 Ideal G     VS1      61.9    54   404  3.93  3.95  2.44
##  9  0.32 Ideal I     SI1      60.9    55   404  4.45  4.48  2.72
## 10  0.3  Ideal I     SI2      61      59   405  4.3   4.33  2.63
## # ℹ 21,541 more rows
```
…
## Row computations with `mutate()`

Rather than compute summaries, we can apply computations to *every* row in the dataset using `mutate()`. This is useful for things like unit conversions. For instance, since 1 carat = $0.2$ grams, we can compute the mass of every diamond:


``` r
## NOTE: No need to edit
diamonds %>% 
  mutate(`mass(g)` = carat / 5) %>% 
  select(`mass(g)`, everything())
```

```
## # A tibble: 53,940 × 11
##    `mass(g)` carat cut       color clarity depth table price     x     y     z
##        <dbl> <dbl> <ord>     <ord> <ord>   <dbl> <dbl> <int> <dbl> <dbl> <dbl>
##  1     0.046  0.23 Ideal     E     SI2      61.5    55   326  3.95  3.98  2.43
##  2     0.042  0.21 Premium   E     SI1      59.8    61   326  3.89  3.84  2.31
##  3     0.046  0.23 Good      E     VS1      56.9    65   327  4.05  4.07  2.31
##  4     0.058  0.29 Premium   I     VS2      62.4    58   334  4.2   4.23  2.63
##  5     0.062  0.31 Good      J     SI2      63.3    58   335  4.34  4.35  2.75
##  6     0.048  0.24 Very Good J     VVS2     62.8    57   336  3.94  3.96  2.48
##  7     0.048  0.24 Very Good I     VVS1     62.3    57   336  3.95  3.98  2.47
##  8     0.052  0.26 Very Good H     SI1      61.9    55   337  4.07  4.11  2.53
##  9     0.044  0.22 Fair      E     VS2      65.1    61   337  3.87  3.78  2.49
## 10     0.046  0.23 Very Good H     VS1      59.4    61   338  4     4.05  2.39
## # ℹ 53,930 more rows
```
…
