…
```r
## NOTE: No need to edit; execute
ansc %>%
  pivot_longer(
    names_to = c(".value", "set"),
    names_sep = "-",
    cols = everything()
  )
```

```
## # A tibble: 22 x 3
##    set       x     y
##    <chr> <dbl> <dbl>
##  1 1        10  8.04
##  2 2        10  9.14
##  3 1         8  6.95
##  4 2         8  8.14
##  5 1        13  7.58
##  6 2        13  8.74
##  7 1         9  8.81
##  8 2         9  8.77
##  9 1        11  8.33
## 10 2        11  9.26
## # … with 12 more rows
```
…
