…
We can't simply check whether `trans == "auto"`, because no string will *exactly* match that fixed pattern. But we can instead check for a substring.


```r
## NOTE: No need to change this!
mpg %>%
  filter(str_detect(trans, "auto"))
```

```
## # A tibble: 157 x 11
##    manufacturer model    displ  year   cyl trans  drv     cty   hwy fl    class 
##    <chr>        <chr>    <dbl> <int> <int> <chr>  <chr> <int> <int> <chr> <chr> 
##  1 audi         a4         1.8  1999     4 auto(… f        18    29 p     compa…
##  2 audi         a4         2    2008     4 auto(… f        21    30 p     compa…
##  3 audi         a4         2.8  1999     6 auto(… f        16    26 p     compa…
##  4 audi         a4         3.1  2008     6 auto(… f        18    27 p     compa…
##  5 audi         a4 quat…   1.8  1999     4 auto(… 4        16    25 p     compa…
##  6 audi         a4 quat…   2    2008     4 auto(… 4        19    27 p     compa…
##  7 audi         a4 quat…   2.8  1999     6 auto(… 4        15    25 p     compa…
##  8 audi         a4 quat…   3.1  2008     6 auto(… 4        17    25 p     compa…
##  9 audi         a6 quat…   2.8  1999     6 auto(… 4        15    24 p     midsi…
## 10 audi         a6 quat…   3.1  2008     6 auto(… 4        17    25 p     midsi…
## # … with 147 more rows
```
…
Notice that the `trans` column of `mpg` has many entries of the form `auto|manual\\([[:alpha:]]\\d\\)`; use `str_mutate()` to create a new column `tmp` with just the code inside the parentheses extracting `[[:alpha:]]\\d`.


```r
## TASK: Mutate `trans` to extract
df_q3 <-
  mpg %>%
  mutate(tmp = str_extract(trans, "[[:alpha:]]\\d"))
df_q3 %>%
  select(tmp)
```

```
## # A tibble: 234 x 1
##    tmp  
##    <chr>
##  1 l5   
##  2 m5   
##  3 m6   
##  4 <NA> 
##  5 l5   
##  6 m5   
##  7 <NA> 
##  8 m5   
##  9 l5   
## 10 m6   
## # … with 224 more rows
```
…
### __q5__ Use `str_remove()` to get mutate `trans` to remove the parentheses and all characters between.

*Hint*: Note that parentheses are *special characters*, so you'll need to *escape* them as you did above.


```r
df_q5 <-
  mpg %>%
  mutate(trans = str_remove(trans, "\\(.*\\)"))
df_q5
```

```
## # A tibble: 234 x 11
##    manufacturer model     displ  year   cyl trans drv     cty   hwy fl    class 
##    <chr>        <chr>     <dbl> <int> <int> <chr> <chr> <int> <int> <chr> <chr> 
##  1 audi         a4          1.8  1999     4 auto  f        18    29 p     compa…
##  2 audi         a4          1.8  1999     4 manu… f        21    29 p     compa…
##  3 audi         a4          2    2008     4 manu… f        20    31 p     compa…
##  4 audi         a4          2    2008     4 auto  f        21    30 p     compa…
##  5 audi         a4          2.8  1999     6 auto  f        16    26 p     compa…
##  6 audi         a4          2.8  1999     6 manu… f        18    26 p     compa…
##  7 audi         a4          3.1  2008     6 auto  f        18    27 p     compa…
##  8 audi         a4 quatt…   1.8  1999     4 manu… 4        18    26 p     compa…
##  9 audi         a4 quatt…   1.8  1999     4 auto  4        16    25 p     compa…
## 10 audi         a4 quatt…   2    2008     4 manu… 4        20    28 p     compa…
## # … with 224 more rows
```
…
