…
df_q1
```

```
## # Bootstrap sampling 
## # A tibble: 1,000 x 4
##    splits          id            df                mean_est
##    <list>          <chr>         <list>               <dbl>
##  1 <split [50/16]> Bootstrap0001 <tibble [50 × 1]> -0.0667 
##  2 <split [50/21]> Bootstrap0002 <tibble [50 × 1]> -0.244  
##  3 <split [50/20]> Bootstrap0003 <tibble [50 × 1]>  0.0499 
##  4 <split [50/15]> Bootstrap0004 <tibble [50 × 1]> -0.0747 
##  5 <split [50/21]> Bootstrap0005 <tibble [50 × 1]>  0.00831
##  6 <split [50/16]> Bootstrap0006 <tibble [50 × 1]> -0.197  
##  7 <split [50/19]> Bootstrap0007 <tibble [50 × 1]> -0.252  
##  8 <split [50/17]> Bootstrap0008 <tibble [50 × 1]> -0.239  
##  9 <split [50/17]> Bootstrap0009 <tibble [50 × 1]> -0.189  
## 10 <split [50/18]> Bootstrap0010 <tibble [50 × 1]> -0.136  
## # … with 990 more rows
```
…
