…
### __q2__ Create a small multiple plot like `ex-mpg-manufacturer` above. Keep in mind the idea of "compared to what?" when deciding which variables to place close to one another.


``` r
## TODO: Create a set of small multiples plot from these data
as_tibble(iris) %>%
  pivot_longer(
    names_to = "part",
    values_to = "length",
    cols = -Species
  )
```

```
## # A tibble: 600 × 3
##    Species part         length
##    <fct>   <chr>         <dbl>
##  1 setosa  Sepal.Length    5.1
##  2 setosa  Sepal.Width     3.5
##  3 setosa  Petal.Length    1.4
##  4 setosa  Petal.Width     0.2
##  5 setosa  Sepal.Length    4.9
##  6 setosa  Sepal.Width     3  
##  7 setosa  Petal.Length    1.4
##  8 setosa  Petal.Width     0.2
##  9 setosa  Sepal.Length    4.7
## 10 setosa  Sepal.Width     3.2
## # ℹ 590 more rows
```
…
