…
```
## Warning: One or more parsing issues, call `problems()` on your data frame for details,
## e.g.:
##   dat <- vroom(...)
##   problems(dat)
```

```r
df_heart_disease
```

```
## # A tibble: 303 × 14
##      age sex    cp       trest…¹  chol fbs   restecg thalach exang oldpeak slope
##    <dbl> <chr>  <chr>      <dbl> <dbl> <lgl> <chr>     <dbl> <lgl>   <dbl> <chr>
##  1    63 male   typical…     145   233 TRUE  Estes'…     150 FALSE     2.3 down…
##  2    67 male   asympto…     160   286 FALSE Estes'…     108 TRUE      1.5 flat 
##  3    67 male   asympto…     120   229 FALSE Estes'…     129 TRUE      2.6 flat 
##  4    37 male   non-ang…     130   250 FALSE normal      187 FALSE     3.5 down…
##  5    41 female atypica…     130   204 FALSE Estes'…     172 FALSE     1.4 upsl…
##  6    56 male   atypica…     120   236 FALSE normal      178 FALSE     0.8 upsl…
##  7    62 female asympto…     140   268 FALSE Estes'…     160 FALSE     3.6 down…
##  8    57 female asympto…     120   354 FALSE normal      163 TRUE      0.6 upsl…
##  9    63 male   asympto…     130   254 FALSE Estes'…     147 FALSE     1.4 flat 
## 10    53 male   asympto…     140   203 TRUE  Estes'…     155 TRUE      3.1 down…
## # … with 293 more rows, 3 more variables: ca <dbl>, thal <chr>, num <dbl>, and
## #   abbreviated variable name ¹​trestbps
```
…
