…
### __q1__ Use integer division `%/%` and the `row_number()` helper to group consecutive observations into groups of `4` with a common identifier `id`.

*Hint*: Since `R` is a one-based index language, you will need to adjust the output of `row_number()` before performing the integer division `%/%`.


``` r
df_q1 <-
  df_data %>%
  mutate(id = (row_number() - 1) %/% 4)
df_q1
```

```
## # A tibble: 1,000 × 2
##         X    id
##     <dbl> <dbl>
##  1 -0.326     0
##  2  0.552     0
##  3 -0.675     0
##  4  0.214     0
##  5  0.311     1
##  6  1.17      1
##  7  0.619     1
##  8 -0.113     1
##  9  0.917     2
## 10 -0.223     2
## # ℹ 990 more rows
```
…
``` r
df_mass
```

```
## # A tibble: 217 × 6
##     date standard_id     Y balance_id residual_sd design_id
##    <dbl>       <dbl> <dbl>      <dbl>       <dbl>     <dbl>
##  1  75.9          41 -19.5         12      0.0217        41
##  2  75.9          41 -19.5         12      0.0118        41
##  3  76.0          41 -19.5         12      0.0232        41
##  4  76.1          41 -19.5         12      0.021         41
##  5  76.6          41 -19.5         12      0.0265        41
##  6  76.7          41 -19.5         12      0.0317        41
##  7  77.2          41 -19.5         12      0.0194        41
##  8  77.3          41 -19.5         12      0.0316        41
##  9  77.6          41 -19.5         12      0.0274        41
## 10  77.7          41 -19.5         12      0.0361        41
## # ℹ 207 more rows
```
…
