38 Data: Reading Excel Sheets | Data Science: Exercise Solutions
…
This is the core idea of resampling. But to simulate a sampling distribution, we need to do this many times.

38.3.1 Efficient resampling

The code we just saw is computationally wasteful, since it stores the same data in many copies. So, programmers have written efficient packages to support resampling methods. We will use the rsample package for resampling in this class. The bootstraps() function resamples with replacement a desired number of times.

Note: Bootstrap resampling is just one of many kinds of resampling methods. It’s called “bootstrapping” because we’re “pulling ourselves up by our own bootstraps”, in the sense that we’re only using the sample we have at hand.

df_data_norm %>% 
  bootstraps(., times = 1000)

## # Bootstrap sampling 
## # A tibble: 1,000 × 2
##    splits          id           
##    <list>          <chr>        
##  1 <split [50/16]> Bootstrap0001
##  2 <split [50/19]> Bootstrap0002
##  3 <split [50/16]> Bootstrap0003
##  4 <split [50/21]> Bootstrap0004
##  5 <split [50/18]> Bootstrap0005
##  6 <split [50/16]> Bootstrap0006
##  7 <split [50/15]> Bootstrap0007
##  8 <split [50/17]> Bootstrap0008
##  9 <split [50/22]> Bootstrap0009
## 10 <split [50/23]> Bootstrap0010
## # ℹ 990 more rows

This looks weird; we have 1000 rows, corresponding to times = 1000. The splits column is where the programming magic happens: Rather than storing a copy of the original data, a split is a list of observations to use in a resample. To take advantage of bootstraps(), we have to use the anaysis() function on the splits column. Here’s an example of accessing a single resample:

## NOTE: No need to edit
df_data_norm %>% 
  bootstraps(., times = 1) %>% 
  # Pull out a single `splits` object
  pull(splits) %>% 
  .[[1]] %>% 
  # Use analysis() to turn the split into a usable dataset
  analysis()

## # A tibble: 50 × 1
##         x
##     <dbl>
##  1 -1.46 
##  2 -0.223
##  3  0.758
##  4  1.17 
##  5  0.920
##  6  0.279
##  7  0.569
##  8 -0.223
##  9  0.448
## 10  0.403
## # ℹ 40 more rows
…
df_demo 

## # Bootstrap sampling 
## # A tibble: 1,000 × 3
##    splits          id            sample_mean
##    <list>          <chr>               <dbl>
##  1 <split [50/18]> Bootstrap0001     -0.118 
##  2 <split [50/22]> Bootstrap0002     -0.301 
##  3 <split [50/19]> Bootstrap0003     -0.0764
##  4 <split [50/17]> Bootstrap0004     -0.180 
##  5 <split [50/20]> Bootstrap0005      0.0279
##  6 <split [50/19]> Bootstrap0006     -0.195 
##  7 <split [50/17]> Bootstrap0007     -0.222 
##  8 <split [50/17]> Bootstrap0008     -0.188 
##  9 <split [50/22]> Bootstrap0009      0.0463
## 10 <split [50/18]> Bootstrap0010     -0.184 
## # ℹ 990 more rows
…
df_q1

## # Bootstrap sampling 
## # A tibble: 1,000 × 3
##    splits          id            sample_sd
##    <list>          <chr>             <dbl>
##  1 <split [50/17]> Bootstrap0001     0.762
##  2 <split [50/16]> Bootstrap0002     0.990
##  3 <split [50/15]> Bootstrap0003     0.919
##  4 <split [50/20]> Bootstrap0004     0.985
##  5 <split [50/22]> Bootstrap0005     0.898
##  6 <split [50/17]> Bootstrap0006     0.909
##  7 <split [50/17]> Bootstrap0007     0.916
##  8 <split [50/21]> Bootstrap0008     1.08 
##  9 <split [50/17]> Bootstrap0009     0.968
## 10 <split [50/17]> Bootstrap0010     1.10 
## # ℹ 990 more rows
…
