51 Data: Cleaning | Data Science: Exercise Solutions
…
df_q4 <-
  df_q2 %>%
  mutate(
    sex = convert_sex(sex),
    cp = convert_cp(cp),
    fbs = convert_fbs(fbs),
    restecg = convert_restecv(restecg),
    exang = convert_exang(exang),
    slope = convert_slope(slope),
    thal = convert_thal(thal)
  )
df_q4

## # A tibble: 303 × 14
##      age sex    cp      trestbps  chol fbs   restecg thalach exang oldpeak slope
##    <dbl> <chr>  <chr>      <dbl> <dbl> <lgl> <chr>     <dbl> <lgl>   <dbl> <chr>
##  1    63 male   typica…      145   233 TRUE  Estes'…     150 FALSE     2.3 down…
##  2    67 male   asympt…      160   286 FALSE Estes'…     108 TRUE      1.5 flat 
##  3    67 male   asympt…      120   229 FALSE Estes'…     129 TRUE      2.6 flat 
##  4    37 male   non-an…      130   250 FALSE normal      187 FALSE     3.5 down…
##  5    41 female atypic…      130   204 FALSE Estes'…     172 FALSE     1.4 upsl…
##  6    56 male   atypic…      120   236 FALSE normal      178 FALSE     0.8 upsl…
##  7    62 female asympt…      140   268 FALSE Estes'…     160 FALSE     3.6 down…
##  8    57 female asympt…      120   354 FALSE normal      163 TRUE      0.6 upsl…
##  9    63 male   asympt…      130   254 FALSE Estes'…     147 FALSE     1.4 flat 
## 10    53 male   asympt…      140   203 TRUE  Estes'…     155 TRUE      3.1 down…
## # ℹ 293 more rows
## # ℹ 3 more variables: ca <dbl>, thal <chr>, num <dbl>
…
There are six rows with missing values.

If we were just doing EDA, we could stop here. However we’re going to use these data for modeling in a future exercise. Most models can’t deal with NA values, so we must choose how to handle rows with NA’s. In cases where only a few observations are missing values, we can simply filter out those rows.

51.4.2 q6 Filter out the rows with missing values.

df_q6 <-
  df_q4 %>%
  filter(!is.na(ca), !is.na(thal))

df_q6

## # A tibble: 297 × 14
##      age sex    cp      trestbps  chol fbs   restecg thalach exang oldpeak slope
##    <dbl> <chr>  <chr>      <dbl> <dbl> <lgl> <chr>     <dbl> <lgl>   <dbl> <chr>
##  1    63 male   typica…      145   233 TRUE  Estes'…     150 FALSE     2.3 down…
##  2    67 male   asympt…      160   286 FALSE Estes'…     108 TRUE      1.5 flat 
##  3    67 male   asympt…      120   229 FALSE Estes'…     129 TRUE      2.6 flat 
##  4    37 male   non-an…      130   250 FALSE normal      187 FALSE     3.5 down…
##  5    41 female atypic…      130   204 FALSE Estes'…     172 FALSE     1.4 upsl…
##  6    56 male   atypic…      120   236 FALSE normal      178 FALSE     0.8 upsl…
##  7    62 female asympt…      140   268 FALSE Estes'…     160 FALSE     3.6 down…
##  8    57 female asympt…      120   354 FALSE normal      163 TRUE      0.6 upsl…
##  9    63 male   asympt…      130   254 FALSE Estes'…     147 FALSE     1.4 flat 
## 10    53 male   asympt…      140   203 TRUE  Estes'…     155 TRUE      3.1 down…
## # ℹ 287 more rows
## # ℹ 3 more variables: ca <dbl>, thal <chr>, num <dbl>
…
