29 Stats: Descriptive Statistics | Data Science: Exercise Solutions
…
To preserve as many rows as possible, use a full_join()

To ensure only valid matches, use an inner_join()

To add information to a dataset df_main, use left_join(df_main, df_extra)

29.11.2 Keys with different names

So far in our examples, join keys have had the same column name. However, there is no guarantee that our join keys will have the same names across all datasets. Thankfully, the *_join() functions have a way to deal with non-matching names. We can use a named vector to specify the key names on both sides.

For instance, the nycflights13 database has multiple tables, including one for the airpots:

airports

## # A tibble: 1,458 × 8
##    faa   name                             lat    lon   alt    tz dst   tzone    
##    <chr> <chr>                          <dbl>  <dbl> <dbl> <dbl> <chr> <chr>    
##  1 04G   Lansdowne Airport               41.1  -80.6  1044    -5 A     America/…
##  2 06A   Moton Field Municipal Airport   32.5  -85.7   264    -6 A     America/…
##  3 06C   Schaumburg Regional             42.0  -88.1   801    -6 A     America/…
##  4 06N   Randall Airport                 41.4  -74.4   523    -5 A     America/…
##  5 09J   Jekyll Island Airport           31.1  -81.4    11    -5 A     America/…
##  6 0A9   Elizabethton Municipal Airport  36.4  -82.2  1593    -5 A     America/…
##  7 0G6   Williams County Airport         41.5  -84.5   730    -5 A     America/…
##  8 0G7   Finger Lakes Regional Airport   42.9  -76.8   492    -5 A     America/…
##  9 0P2   Shoestring Aviation Airfield    39.8  -76.6  1000    -5 U     America/…
## 10 0S9   Jefferson County Intl           48.1 -123.    108    -8 A     America/…
## # ℹ 1,448 more rows

Note that the airport identifier in airports is faa. However, for flights, we have to specify an airport identifier for both the origin and dest. We can use a named vector to match up the join key:

## NOTE: No need to edit
flights %>% 
  select(flight, origin) %>% 
  left_join(
    airports %>% select(faa, name),
    #       name in `flights`   name in `airports`
    by = c( "origin"          = "faa"              )
  )

## # A tibble: 336,776 × 3
##    flight origin name               
##     <int> <chr>  <chr>              
##  1   1545 EWR    Newark Liberty Intl
##  2   1714 LGA    La Guardia         
##  3   1141 JFK    John F Kennedy Intl
##  4    725 JFK    John F Kennedy Intl
##  5    461 LGA    La Guardia         
##  6   1696 EWR    Newark Liberty Intl
##  7    507 EWR    Newark Liberty Intl
##  8   5708 LGA    La Guardia         
##  9     79 JFK    John F Kennedy Intl
## 10    301 LGA    La Guardia         
## # ℹ 336,766 more rows
29.11.3 q3 Add the airport name

Complete the code below by using an appropriate join to add the airport name to the flights dataset.

Aside: While you’re at it, try replacing left_join() with inner_join(). What happens to the resulting data?

## TASK: Add the airport name for the `dest` using a join
flights %>% 
  left_join(
    airports %>% select(faa, name),
    by = c("dest" = "faa")
  ) %>% 
  select(flight, dest, name, everything())

## # A tibble: 336,776 × 20
##    flight dest  name          year month   day dep_time sched_dep_time dep_delay
##     <int> <chr> <chr>        <int> <int> <int>    <int>          <int>     <dbl>
##  1   1545 IAH   George Bush…  2013     1     1      517            515         2
##  2   1714 IAH   George Bush…  2013     1     1      533            529         4
##  3   1141 MIA   Miami Intl    2013     1     1      542            540         2
##  4    725 BQN   <NA>          2013     1     1      544            545        -1
##  5    461 ATL   Hartsfield …  2013     1     1      554            600        -6
##  6   1696 ORD   Chicago Oha…  2013     1     1      554            558        -4
##  7    507 FLL   Fort Lauder…  2013     1     1      555            600        -5
##  8   5708 IAD   Washington …  2013     1     1      557            600        -3
##  9     79 MCO   Orlando Intl  2013     1     1      557            600        -3
## 10    301 ORD   Chicago Oha…  2013     1     1      558            600        -2
## # ℹ 336,766 more rows
## # ℹ 11 more variables: arr_time <int>, sched_arr_time <int>, arr_delay <dbl>,
## #   carrier <chr>, tailnum <chr>, origin <chr>, air_time <dbl>, distance <dbl>,
## #   hour <dbl>, minute <dbl>, time_hour <dttm>
…
Use the criteria dataframe you produced above to filter flights on dest and month.

Hint: Remember to use a filtering join to take advantage of the criteria dataset we built above!

df_q5 <-
  flights %>%
  semi_join(
    criteria,
    by = c("dest", "month")
  )

df_q5

## # A tibble: 2,584 × 19
##     year month   day dep_time sched_dep_time dep_delay arr_time sched_arr_time
##    <int> <int> <int>    <int>          <int>     <dbl>    <int>          <int>
##  1  2013     8     1      554            559        -5      909            902
##  2  2013     8     1      601            601         0      916            915
##  3  2013     8     1      657            700        -3     1016           1016
##  4  2013     8     1      723            730        -7     1040           1045
##  5  2013     8     1      738            740        -2     1111           1055
##  6  2013     8     1      745            743         2     1117           1103
##  7  2013     8     1      810            755        15     1120           1115
##  8  2013     8     1      825            829        -4     1156           1143
##  9  2013     8     1      838            840        -2     1230           1143
## 10  2013     8     1      851            853        -2     1227           1212
## # ℹ 2,574 more rows
## # ℹ 11 more variables: arr_delay <dbl>, carrier <chr>, flight <int>,
## #   tailnum <chr>, origin <chr>, dest <chr>, air_time <dbl>, distance <dbl>,
## #   hour <dbl>, minute <dbl>, time_hour <dttm>
…
